module github.com/harishdurga/reminder/cron

go 1.17

require (
	github.com/joho/godotenv v1.4.0
	go.mongodb.org/mongo-driver v1.8.1
)

require (
	github.com/araddon/dateparse v0.0.0-20210429162001-6b43995a97de // indirect
	github.com/go-co-op/gocron v1.11.0 // indirect
	github.com/go-stack/stack v1.8.0 // indirect
	github.com/golang/snappy v0.0.1 // indirect
	github.com/klauspost/compress v1.13.6 // indirect
	github.com/pkg/errors v0.9.1 // indirect
	github.com/robfig/cron/v3 v3.0.1 // indirect
	github.com/xdg-go/pbkdf2 v1.0.0 // indirect
	github.com/xdg-go/scram v1.0.2 // indirect
	github.com/xdg-go/stringprep v1.0.2 // indirect
	github.com/youmark/pkcs8 v0.0.0-20181117223130-1be2e3e5546d // indirect
	golang.org/x/crypto v0.0.0-20201216223049-8b5274cf687f // indirect
	golang.org/x/sync v0.0.0-20210220032951-036812b2e83c // indirect
	golang.org/x/text v0.3.5 // indirect
)
